2.679698056793212686e+02
2.865152929306030316e+01
2.010924264907836800e+01
1.839086482048034554e+01
1.709681760787963967e+01
1.609629734039306470e+01
1.548406641006469719e+01
1.475702091217041101e+01
1.419099372863769482e+01
1.391215157508850098e+01
1.342122840881347656e+01
1.311302324295044031e+01
1.250671767234802267e+01
1.226415413856506298e+01
1.181194879531860309e+01
1.171779498100280748e+01
1.141307123184204109e+01
1.131908376693725593e+01
1.097384378433227603e+01
1.080423323631286614e+01
1.060961853981017988e+01
1.053954717636108462e+01
1.050129657745361378e+01
1.039426683425903342e+01
1.028194870948791539e+01
1.019803422927856396e+01
1.005417087554931577e+01
9.765722780227660493e+00
9.685765972137451385e+00
9.570521974563598988e+00
9.714278106689453907e+00
9.407860679626464773e+00
9.459392280578613921e+00
9.397998957633971528e+00
9.286354346275329519e+00
9.270751543045044230e+00
9.251440215110779519e+00
9.207463908195496316e+00
9.240486011505126385e+00
9.154210081100464080e+00
9.155888800621033496e+00
9.063774800300597789e+00
9.094174785614013601e+00
9.043844170570373819e+00
9.039491658210755176e+00
8.947243208885192089e+00
9.069082417488097292e+00
9.080807194709777264e+00
8.962705054283141237e+00
8.994672398567200133e+00
