2.431537938690185570e+02
2.774911285400390781e+01
1.901386157989502124e+01
1.745728116989135614e+01
1.642094378471374583e+01
1.573683638572692800e+01
1.501293818473815911e+01
1.433232131004333532e+01
1.368314601898193317e+01
1.333179509162902754e+01
1.305298951148986752e+01
1.278707335472106976e+01
1.251246753692626967e+01
1.232653347015380874e+01
1.192245259284973180e+01
1.180220449447631914e+01
1.159958494186401445e+01
1.135580343246459911e+01
1.117627797126769984e+01
1.098498298645019489e+01
1.082103775978088400e+01
1.065981603622436502e+01
1.055923073768615694e+01
1.040883392333984325e+01
1.016454075813293478e+01
1.011659411430358801e+01
9.928541355133056356e+00
9.799153060913086577e+00
9.721321296691893821e+00
9.542463006973266104e+00
9.472582473754883381e+00
9.421214437484740856e+00
9.335078182220458487e+00
9.164625177383422638e+00
9.107327804565429119e+00
9.020257306098937278e+00
8.914801197052002024e+00
8.841440124511718679e+00
8.772449746131897541e+00
8.714408187866210298e+00
8.599966692924500222e+00
8.649530687332152468e+00
8.406405043601989036e+00
8.401814804077147869e+00
8.411462535858154510e+00
8.299907288551331419e+00
8.270304832458496236e+00
8.082963576316833709e+00
7.933455224037170517e+00
7.958472213745117152e+00
